Owner Analysis
…
Filter out Naples Reef data

not_napl <- lobster_abundance %>% 
    filter(SITE != "NAPL")
unique(lobster_abundance$SITE)

[1] "IVEE" "NAPL" "AQUE" "CARP" "MOHK"

Filter Arroyo Quemado lobsters

aque_70mm <- lobster_abundance %>% 
    filter(SITE == "AQUE" & SIZE_MM >= 70)
aque_70mm

# A tibble: 254 × 10
    YEAR MONTH DATE       SITE  TRANSECT REPLICATE SIZE_MM COUNT NUM_AO  AREA
   <dbl> <dbl> <date>     <chr>    <dbl> <chr>       <dbl> <dbl>  <dbl> <dbl>
 1  2012     8 2012-08-24 AQUE         1 D              70     1      0   300
 2  2012     8 2012-08-24 AQUE         1 D              75     1      0   300
 3  2012     8 2012-08-24 AQUE         2 A              72     1      0   300
 4  2012     8 2012-08-24 AQUE         2 B              85     1      0   300
 5  2012     8 2012-08-24 AQUE         4 A              70     1      0   300
 6  2012     8 2012-08-24 AQUE         4 A              75     1      0   300
 7  2012     8 2012-08-24 AQUE         4 A              87     1      0   300
 8  2012     8 2012-08-24 AQUE         4 B              77     1      0   300
 9  2012     8 2012-08-24 AQUE         4 B              85     2      0   300
10  2012     8 2012-08-24 AQUE         5 C              70     1      0   300
# … with 244 more rows
…
Total # of lobsters observed

lobsters_summarize <- lobster_abundance %>% 
  group_by(SITE, YEAR) %>%
  mutate(LOBSTER_COLOR = "red") %>% 
  summarize(COUNT = n())

`summarise()` has grouped output by 'SITE'. You can override using the
`.groups` argument.

lobsters_summarize

# A tibble: 55 × 3
# Groups:   SITE [5]
   SITE   YEAR COUNT
   <chr> <dbl> <int>
 1 AQUE   2012    53
 2 AQUE   2013    46
 3 AQUE   2014    72
 4 AQUE   2015    72
 5 AQUE   2016    50
 6 AQUE   2017    62
 7 AQUE   2018    62
 8 AQUE   2019    50
 9 AQUE   2020    39
10 AQUE   2021    33
# … with 45 more rows
…
